MetaDAG experiment example
…
5.3 Comparison core’s all algaes, fungi and archaea

reactions=names(Results)[-c(1:4)]
cores=tibble(reactions)
cores=cores %>%  separate(reactions, into=c("reactions","enzyme"),sep="\\(")

cores= cores %>% separate(reactions,into=c("reactions","reactions2"),sep="\\|",fill = "right")

cores$enzyme=gsub("\\(|\\)",replacement = "",cores$enzyme)
cores

# A tibble: 3,993 × 3
   reactions  reactions2 enzyme 
   <chr>      <chr>      <chr>  
 1 R00710     <NA>       1.2.1.3
 2 R00710_rev <NA>       1.2.1.3
 3 R00711     <NA>       1.2.1.5
 4 R00711_rev <NA>       1.2.1.5
 5 R00755     <NA>       4.1.1.1
 6 R00746     <NA>       1.1.1.2
 7 R00746_rev <NA>       1.1.1.2
 8 R00754     <NA>       1.1.1.1
 9 R00754_rev <NA>       1.1.1.1
10 R00014     <NA>       4.1.1.1
# ℹ 3,983 more rows
…
5.4 Comparison core’s all algaes, fungi and archaea

reactions=names(Results)[-c(1:4)]
cores=tibble(reactions)
cores=cores %>%  separate(reactions, into=c("reactions","enzyme"),sep="\\(")

#cores= cores %>% separate(reactions,into=c("reactions","reactions2"),sep="\\|",fill = "right")

cores$enzyme=gsub("\\(|\\)",replacement = "",cores$enzyme)
cores

# A tibble: 3,993 × 2
   reactions  enzyme 
   <chr>      <chr>  
 1 R00710     1.2.1.3
 2 R00710_rev 1.2.1.3
 3 R00711     1.2.1.5
 4 R00711_rev 1.2.1.5
 5 R00755     4.1.1.1
 6 R00746     1.1.1.2
 7 R00746_rev 1.1.1.2
 8 R00754     1.1.1.1
 9 R00754_rev 1.1.1.1
10 R00014     4.1.1.1
# ℹ 3,983 more rows

#algae_core=

Results

# A tibble: 884 × 3,997
   Organism Categories mDAG_Id Full_Name `R00710(1.2.1.3)` `R00710_rev(1.2.1.3)`
   <chr>    <chr>      <chr>   <chr>     <chr>             <chr>                
 1 aaf      Protists|… 0036    Aureococ… 0.0.15            0.0.15               
 2 aag      Animals|A… 0035    Aedes ae… 0.2.33.36.14      0.2.33.36.14         
 3 aalb     Animals|A… 0276    Aedes al… 0.2.33.36.18      0.2.33.36.18         
 4 aali     Animals|A… 0267    Anophele… 0.2.33.36.65      0.2.33.36.65         
 5 aalt     Fungi|Asc… 0240    Alternar… 0.3.5.6.7         0.3.5.6.7            
 6 aam      Animals|V… 0040    Apteryx … 0.2.40.15.46      0.2.40.15.46         
 7 aamp     Animals|V… 0313    Arvicola… 0.2.40.18.2.0     0.2.40.18.2.0        
 8 aang     Animals|V… 0317    Anguilla… 0.2.40.17.0.0     0.2.40.17.0.0        
 9 aara     Animals|A… 0362    Anophele… 0.2.33.36.34      0.2.33.36.34         
10 abe      Fungi|Asc… 0060    Trichoph… 0.3.5.7.0         0.3.5.7.0            
# ℹ 874 more rows
# ℹ 3,991 more variables: `R00711(1.2.1.5)` <chr>, `R00711_rev(1.2.1.5)` <chr>,
#   `R00755(4.1.1.1)` <chr>, `R00746(1.1.1.2)` <chr>,
#   `R00746_rev(1.1.1.2)` <chr>, `R00754(1.1.1.1)` <chr>,
#   `R00754_rev(1.1.1.1)` <chr>, `R00014(4.1.1.1)` <chr>,
#   `R00014(1.2.4.1)` <chr>, `R03270(1.2.4.1)` <chr>, `R02569(2.3.1.12)` <chr>,
#   `R02569_rev(2.3.1.12)` <chr>, `R00703(1.1.1.27)` <chr>, …

cores

# A tibble: 3,993 × 2
   reactions  enzyme 
   <chr>      <chr>  
 1 R00710     1.2.1.3
 2 R00710_rev 1.2.1.3
 3 R00711     1.2.1.5
 4 R00711_rev 1.2.1.5
 5 R00755     4.1.1.1
 6 R00746     1.1.1.2
 7 R00746_rev 1.1.1.2
 8 R00754     1.1.1.1
 9 R00754_rev 1.1.1.1
10 R00014     4.1.1.1
# ℹ 3,983 more rows

meta_taxo

# A tibble: 884 × 8
   Organism Kingdom Phylum      Class   mDAG_Id Full_Name Freq_Phylum Freq_Class
   <chr>    <chr>   <chr>       <chr>   <chr>   <chr>     <table[1d]> <table[1d>
 1 aamp     Animals Vertebrates Mammals 0313    Arvicola… 331         139       
 2 afz      Animals Vertebrates Mammals 0143    Antechin… 331         139       
 3 ajm      Animals Vertebrates Mammals 0221    Artibeus… 331         139       
 4 aju      Animals Vertebrates Mammals 0224    Acinonyx… 331         139       
 5 aml      Animals Vertebrates Mammals 0279    Ailuropo… 331         139       
 6 anu      Animals Vertebrates Mammals 0310    Arvicant… 331         139       
 7 bacu     Animals Vertebrates Mammals 0600    Balaenop… 331         139       
 8 bbis     Animals Vertebrates Mammals 0193    Bison bi… 331         139       
 9 bbub     Animals Vertebrates Mammals 0416    Bubalus … 331         139       
10 biu      Animals Vertebrates Mammals 0622    Bos indi… 331         139       
# ℹ 874 more rows
…
